{
  "project_info": {
    "project_number": "450604336425",
    "firebase_url": "https://admob-app-id-6356150919.firebaseio.com",
    "project_id": "admob-app-id-6356150919",
    "storage_bucket": "admob-app-id-6356150919.appspot.com"
  },
  "client": [
    {
      "client_info": {
        "mobilesdk_app_id": "1:450604336425:android:6a1fb39db9f7f8b8",
        "android_client_info": {
          "package_name": "com.colorinfoapp.android"
        }
      },
      "oauth_client": [
        {
          "client_id": "450604336425-8ambemdhggjmst0hopes0silkva23sq4.apps.googleusercontent.com",
          "client_type": 3
        }
      ],
      "api_key": [
        {
          "current_key": "AIzaSyDPI4IAwE500NeXOkJgN1OY9BQyGsL4Eso"
        }
      ],
      "services": {
        "analytics_service": {
          "status": 1
        },
        "appinvite_service": {
          "status": 1,
          "other_platform_oauth_client": []
        },
        "ads_service": {
          "status": 2
        }
      }
    }
  ],
  "configuration_version": "1"
}