Colour Name,R,G,B
Federal Standard 10032,55,39,38
Federal Standard 10045,95,79,74
Federal Standard 10049,79,42,37
Federal Standard 10055,111,70,37
Federal Standard 10059,71,54,44
Federal Standard 10075,101,64,55
Federal Standard 10076,124,57,37
Federal Standard 10080,97,74,54
Federal Standard 10091,130,71,37
Federal Standard 10115,166,110,68
Federal Standard 10129,135,111,85
Federal Standard 10219,154,126,103
Federal Standard 10233,172,125,109
Federal Standard 10260,208,176,114
Federal Standard 10266,177,143,88
Federal Standard 10324,181,155,136
Federal Standard 10371,204,154,99
Federal Standard 11086,173,35,40
Federal Standard 11105,174,40,37
Federal Standard 11120,194,59,49
Federal Standard 11136 Insignia Red,163,43,37
Federal Standard 11140,174,43,41
Federal Standard 11302,205,79,58
Federal Standard 11328,190,74,82
Federal Standard 11400,214,80,48
Federal Standard 11630 Pink,231,193,187
Federal Standard 11670,248,212,187
Federal Standard 12160,179,102,71
Federal Standard 12197 International Orange,210,78,0
Federal Standard 12199,236,67,0
Federal Standard 12215,215,97,23
Federal Standard 12243,227,115,0
Federal Standard 12246,223,97,0
Federal Standard 12300,223,138,127
Federal Standard 12473,237,122,0
Federal Standard 12648,238,201,162
Federal Standard 13275,171,128,0
Federal Standard 13415,239,164,0
Federal Standard 13432,245,164,0
Federal Standard 13507,255,183,0
Federal Standard 13522,210,193,164
Federal Standard 13523,222,200,9
Federal Standard 13531,215,193,168
Federal Standard 13538 Orange Yellow,249,176,0
Federal Standard 13578,223,204,167
Federal Standard 13591,247,209,0
Federal Standard 13594,242,205,136
Federal Standard 13596,231,198,134
Federal Standard 13613,241,210,170
Federal Standard 13618,246,210,109
Federal Standard 13637,226,180,30
Federal Standard 13655 Blue Angels Yellow,255,199,0
Federal Standard 13670 Lime Yellow,255,221,104
Federal Standard 13690,236,218,183
Federal Standard 13695,246,212,136
Federal Standard 13711,239,215,177
Federal Standard 14036,38,61,55
Federal Standard 14050,66,70,60
Federal Standard 14052 Green,67,68,56
Federal Standard 14056,132,51,12
Federal Standard 14062 Dark Green,31,86,59
Federal Standard 14064,76,75,60
Federal Standard 14066,0,91,64
Federal Standard 14077,70,78,68
Federal Standard 14079,81,82,64
Federal Standard 14084,60,55,40
Federal Standard 14087 Olive Drab,60,55,39
Federal Standard 14090,0,113,69
Federal Standard 14097,96,104,74
Federal Standard 14108,42,86,63
Federal Standard 14109,0,95,69
Federal Standard 14110,39,111,58
Federal Standard 14115 Green,0,122,89
Federal Standard 14120,0,126,96
Federal Standard 14158,107,121,118
Federal Standard 14159,116,123,110
Federal Standard 14187,82,132,49
Federal Standard 14223,95,140,106
Federal Standard 14241,135,162,152
Federal Standard 14255,152,142,96
Federal Standard 14257,148,145,102
Federal Standard 14260,99,158,126
Federal Standard 14272,122,159,129
Federal Standard 14277,139,158,150
Federal Standard 14325,132,172,155
Federal Standard 14449,170,189,156
Federal Standard 14491,174,194,173
Federal Standard 14516,184,200,183
Federal Standard 14533,178,191,152
Federal Standard 14672,213,219,192
Federal Standard 15042 Sea Blue,45,55,61
Federal Standard 15044 Insignia Blue,38,48,66
Federal Standard 15045,33,59,74
Federal Standard 15050 Blue Angels Blue,33,64,97
Federal Standard 15052,31,47,96
Federal Standard 15053,38,59,86
Federal Standard 15056 Blue,37,50,115
Federal Standard 15065,0,86,134
Federal Standard 15080,30,82,112
Federal Standard 15090,0,83,123
Federal Standard 15092,0,117,170
Federal Standard 15102 Dark Blue,24,100,147
Federal Standard 15107,98,132,152
Federal Standard 15123,58,108,167
Federal Standard 15125,0,110,142
Federal Standard 15177,97,129,154
Federal Standard 15180,0,115,180
Federal Standard 15182,0,128,176
Federal Standard 15187,0,156,200
Federal Standard 15193,88,140,149
Federal Standard 15200 Sky Blue,84,183,212
Federal Standard 15450 Air Superiority Blue,151,188,213
Federal Standard 15526,180,197,204
Federal Standard 16081 Engine Gray,85,88,86
Federal Standard 16099,86,94,98
Federal Standard 16152,92,99,105
Federal Standard 16160,138,119,82
Federal Standard 16165,123,120,103
Federal Standard 16187,112,129,143
Federal Standard 16231,118,123,127
Federal Standard 16251,142,143,142
Federal Standard 16307,157,157,149
Federal Standard 16314,155,159,155
Federal Standard 16350,184,133,123
Federal Standard 16357,175,170,151
Federal Standard 16360,182,175,155
Federal Standard 16376,169,169,158
Federal Standard 16405,200,190,168
Federal Standard 16440 Light Gull Gray,188,186,178
Federal Standard 16473 Aircraft Gray,170,178,176
Federal Standard 16492,197,195,188
Federal Standard 16515 Canadian Voodoo Gray,199,201,199
Federal Standard 16555,210,198,169
Federal Standard 17038 Black,44,41,38
Federal Standard 17043 Gold,151,132,73
Federal Standard 17100 Purple,116,78,122
Federal Standard 17142,161,89,135
Federal Standard 17155,158,98,148
Federal Standard 17178 Aluminum Silver,155,157,159
Federal Standard 17200,145,150,153
Federal Standard 17773,230,234,225
Federal Standard 17778,241,233,210
Federal Standard 17855,245,231,197
Federal Standard 17875 Insignia White,241,240,234
Federal Standard 17886,247,241,227
Federal Standard 17925 Insignia White,250,247,241
Federal Standard 20040,80,67,55
Federal Standard 20045,97,80,76
Federal Standard 20059,93,72,62
Federal Standard 20061 Maroon,108,68,68
Federal Standard 20062 Brown,86,73,68
Federal Standard 20095,124,106,86
Federal Standard 20100 Brown Yellow,143,89,56
Federal Standard 20109 Red Brown,140,80,63
Federal Standard 20117,134,96,70
Federal Standard 20122,118,87,60
Federal Standard 20129,135,111,85
Federal Standard 20140 Brown Special,135,110,91
Federal Standard 20152,149,74,59
Federal Standard 20206,159,127,121
Federal Standard 20219,155,127,102
Federal Standard 20227,163,139,120
Federal Standard 20233,172,127,113
Federal Standard 20252 Tan,186,129,106
Federal Standard 20260 Tan,209,175,111
Federal Standard 20266 Yellow Sand,175,145,87
Federal Standard 20313,179,155,138
Federal Standard 20318,176,159,133
Federal Standard 20372,184,167,145
Federal Standard 20400 Tan,209,167,121
Federal Standard 20450 Night Tan,204,177,154
Federal Standard 21105 Red,185,15,33
Federal Standard 21136,163,48,42
Federal Standard 21158,194,91,100
Federal Standard 21302,202,78,63
Federal Standard 21310 Red,195,37,2
Federal Standard 21400 Red,215,77,44
Federal Standard 21433,210,160,139
Federal Standard 21575,232,192,170
Federal Standard 21643,239,213,187
Federal Standard 21667,241,212,180
Federal Standard 21668,240,211,202
Federal Standard 21670,244,210,186
Federal Standard 22144,175,88,58
Federal Standard 22190 Red,219,70,18
Federal Standard 22203,195,102,62
Federal Standard 22246,225,13,40
Federal Standard 22276,205,125,96
Federal Standard 22356,222,137,112
Federal Standard 22510,255,123,0
Federal Standard 22516 Tan,225,162,121
Federal Standard 22519,223,186,158
Federal Standard 22544,249,162,77
Federal Standard 22563,224,194,162
Federal Standard 22630,236,201,171
Federal Standard 22648,242,206,171
Federal Standard 23448,193,170,129
Federal Standard 23522,210,192,164
Federal Standard 23531,215,195,169
Federal Standard 23538,254,181,0
Federal Standard 23564,225,207,164
Federal Standard 23578 Cream,221,205,170
Federal Standard 23594 Beige,242,205,140
Federal Standard 23613,239,208,167
Federal Standard 23617,233,208,166
Federal Standard 23619,233,208,166
Federal Standard 23655 Yellow,255,204,0
Federal Standard 23685,236,227,170
Federal Standard 23690,234,216,182
Federal Standard 23695,248,213,139
Federal Standard 23697 Yellow Sand,245,215,142
Federal Standard 23711,244,219,180
Federal Standard 23717,239,221,186
Federal Standard 23722 Sand,238,219,175
Federal Standard 23727,242,225,174
Federal Standard 23785,244,214,79
Federal Standard 23793,248,233,148
Federal Standard 23814,232,231,164
Federal Standard 24052 Green,73,74,63
Federal Standard 24064,80,77,64
Federal Standard 24079 Forest Green,87,88,73
Federal Standard 24084,70,65,50
Federal Standard 24087,69,64,49
Federal Standard 24091,100,94,90
Federal Standard 24097,97,105,78
Federal Standard 24098,104,101,65
Federal Standard 24108,66,105,83
Federal Standard 24148,97,120,118
Federal Standard 24158,108,121,118
Federal Standard 24159,119,125,112
Federal Standard 24172,109,126,104
Federal Standard 24201,141,133,107
Federal Standard 24226,132,143,127
Federal Standard 24227,127,146,113
Federal Standard 24233,131,150,147
Federal Standard 24241,137,164,153
Federal Standard 24260,109,159,131
Federal Standard 24272 Green,117,156,126
Federal Standard 24277,139,157,149
Federal Standard 24300,140,164,148
Federal Standard 24325,130,171,154
Federal Standard 24373,161,176,149
Federal Standard 24410 Green,167,184,168
Federal Standard 24417,177,185,164
Federal Standard 24424,179,182,158
Federal Standard 24432,178,184,166
Federal Standard 24441,177,188,161
Federal Standard 24449,168,187,154
Federal Standard 24466,167,189,164
Federal Standard 24491,173,195,176
Federal Standard 24504,178,193,168
Federal Standard 24516,183,197,181
Federal Standard 24518,178,193,175
Federal Standard 24525,185,198,172
Federal Standard 24533,179,192,152
Federal Standard 24552,209,206,140
Federal Standard 24554,215,215,186
Federal Standard 24558,193,209,178
Federal Standard 24583,203,220,184
Federal Standard 24585,206,226,199
Federal Standard 24664,197,217,192
Federal Standard 24670,212,221,203
Federal Standard 24672,215,221,193
Federal Standard 25042,53,63,69
Federal Standard 25045,44,63,79
Federal Standard 25051,70,78,99
Federal Standard 25052,3,38,94
Federal Standard 25053,52,74,101
Federal Standard 25056,37,52,117
Federal Standard 25102,47,98,140
Federal Standard 25109,81,114,135
Federal Standard 25177,100,125,153
Federal Standard 25183,43,126,177
Federal Standard 25184,82,134,157
Federal Standard 25189,116,138,147
Federal Standard 25190,100,144,167
Federal Standard 25193,93,142,150
Federal Standard 25237,132,144,149
Federal Standard 25240,127,153,187
Federal Standard 25299,122,167,161
Federal Standard 25352 Blue,146,167,161
Federal Standard 25414,152,178,176
Federal Standard 25466,131,194,229
Federal Standard 25488,162,191,217
Federal Standard 25526,183,198,205
Federal Standard 25550 Light Blue,209,223,230
Federal Standard 25622,212,218,210
Federal Standard 25630,221,220,214
Federal Standard 26008 Dark Gray,84,87,91
Federal Standard 26044 Gray,62,68,75
Federal Standard 26081 Seaplane Gray,88,91,91
Federal Standard 26120,96,83,74
Federal Standard 26122,109,106,105
Federal Standard 26132,111,113,114
Federal Standard 26134,116,116,111
Federal Standard 26152 Gray,114,119,121
Federal Standard 26173,127,132,139
Federal Standard 26176,118,128,138
Federal Standard 26187,123,130,132
Federal Standard 26231,137,141,143
Federal Standard 26250,140,146,144
Federal Standard 26251,146,147,146
Federal Standard 26270 Medium Gray,145,149,151
Federal Standard 26280,150,152,150
Federal Standard 26293,153,155,156
Federal Standard 26306,164,154,143
Federal Standard 26307,157,157,147
Federal Standard 26314,154,159,156
Federal Standard 26329,152,166,167
Federal Standard 26357,172,168,155
Federal Standard 26360,181,175,155
Federal Standard 26373,172,175,176
Federal Standard 26400,212,202,176
Federal Standard 26405,195,186,165
Federal Standard 26408,195,193,180
Federal Standard 26424,199,189,178
Federal Standard 26440 Light Gull Gray,185,183,177
Federal Standard 26492,197,196,190
Federal Standard 26493,193,194,193
Federal Standard 26496,187,187,175
Federal Standard 26521,207,193,178
Federal Standard 26555,213,201,172
Federal Standard 26559,204,200,185
Federal Standard 26586,213,204,178
Federal Standard 26595,203,202,189
Federal Standard 26622,208,204,194
Federal Standard 27038 Black,43,45,48
Federal Standard 27040,49,50,53
Federal Standard 27043,159,139,81
Federal Standard 27142,162,91,133
Federal Standard 27144,138,106,143
Federal Standard 27722,231,225,211
Federal Standard 27769,0,220,196
Federal Standard 27778,240,233,211
Federal Standard 27780 White,243,236,221
Federal Standard 27855,242,230,196
Federal Standard 27875 Insignia White,243,242,236
Federal Standard 27880,251,245,232
Federal Standard 27886,250,243,228
Federal Standard 27925,250,247,242
Federal Standard 30040,95,85,77
Federal Standard 30045 Brown,101,85,81
Federal Standard 30051 Leather Brown,79,66,57
Federal Standard 30076,98,0,0
Federal Standard 30097 Brown,106,92,79
Federal Standard 30099 Brown,116,98,82
Federal Standard 30108 Red Brown,108,84,71
Federal Standard 30109,144,90,76
Federal Standard 30111 Brown,125,91,82
Federal Standard 30117 Earth Red,137,103,80
Federal Standard 30118 Field Drab,123,105,78
Federal Standard 30129,135,111,85
Federal Standard 30140 Brown Special,136,107,88
Federal Standard 30145,139,114,88
Federal Standard 30152,132,51,32
Federal Standard 30160 Brown,135,83,90
Federal Standard 30166,143,92,81
Federal Standard 30206,159,126,119
Federal Standard 30215 Brown,158,118,85
Federal Standard 30219 Tan,161,131,108
Federal Standard 30227 Tan,163,139,122
Federal Standard 30233,171,126,112
Federal Standard 30252,187,131,105
Federal Standard 30257 Tan,195,155,105
Federal Standard 30266 Yellow Sand,176,147,92
Federal Standard 30277 Sand Brown,166,151,125
Federal Standard 30279 Sand,183,157,138
Federal Standard 30313,183,156,139
Federal Standard 30315,181,156,138
Federal Standard 30318,178,161,134
Federal Standard 30324,183,159,139
Federal Standard 30372 Sand,182,166,144
Federal Standard 30400 Yellow Sand,194,153,99
Federal Standard 30450,207,180,157
Federal Standard 31090 Brown,132,99,73
Federal Standard 31136 Insignia Red,168,73,70
Federal Standard 31158,194,87,95
Federal Standard 31302 Red,206,75,64
Federal Standard 31350 Red,186,28,0
Federal Standard 31400 Red,212,88,62
Federal Standard 31433,208,161,139
Federal Standard 31575,231,190,167
Federal Standard 31638,242,185,185
Federal Standard 31643,237,211,186
Federal Standard 31667,242,213,180
Federal Standard 31668,237,210,201
Federal Standard 31669,246,212,209
Federal Standard 31670,243,211,189
Federal Standard 32169,182,102,68
Federal Standard 32246,234,114,61
Federal Standard 32276,210,129,100
Federal Standard 32356,222,137,113
Federal Standard 32473 Orange,233,134,78
Federal Standard 32516,223,162,119
Federal Standard 32544,252,166,95
Federal Standard 32555,253,182,102
Federal Standard 32630,234,200,168
Federal Standard 32648 Sand,242,206,169
Federal Standard 33070,101,96,77
Federal Standard 33105 Brown,127,108,82
Federal Standard 33245 Tan,179,140,94
Federal Standard 33275,169,129,0
Federal Standard 33303 Sand,176,161,131
Federal Standard 33432,229,154,0
Federal Standard 33434 Ochre,217,169,90
Federal Standard 33440 Tan,167,144,101
Federal Standard 33446 Dessert Tan,177,159,123
Federal Standard 33448 Dark Yellow,195,172,132
Federal Standard 33481,213,186,87
Federal Standard 33522,211,193,163
Federal Standard 33531 Middlestone,214,193,170
Federal Standard 33538 Orange Yellow,255,183,0
Federal Standard 33564,221,205,161
Federal Standard 33578,220,204,170
Federal Standard 33591,232,211,0
Federal Standard 33613 Radome Tan,239,208,168
Federal Standard 33617 Sand,227,209,185
Federal Standard 33637,239,194,89
Federal Standard 33655,255,202,0
Federal Standard 33685,234,225,169
Federal Standard 33690 Sand,239,219,182
Federal Standard 33695 Yellow Sand,253,185,146
Federal Standard 33696,255,216,114
Federal Standard 33711 Sand,240,216,176
Federal Standard 33717 Sand,239,220,187
Federal Standard 33722,237,218,177
Federal Standard 33727,242,224,175
Federal Standard 33793,249,237,145
Federal Standard 33798,250,230,167
Federal Standard 33814,233,234,164
Federal Standard 34031 Dark Green,87,84,80
Federal Standard 34052 USMC Green,85,86,79
Federal Standard 34056,35,45,36
Federal Standard 34058 Sea Blue,61,94,93
Federal Standard 34062,0,64,30
Federal Standard 34064 Dark Green,94,92,86
Federal Standard 34077 Green,46,57,51
Federal Standard 34079 Forest Green,89,92,78
Federal Standard 34082 Green,96,100,76
Federal Standard 34083 Green,93,93,80
Federal Standard 34084 Green,86,82,72
Federal Standard 34086 I. R. Dark Green,97,95,86
Federal Standard 34087 Olive Drab,85,79,68
Federal Standard 34088 Olive Drab,85,79,68
Federal Standard 34089,111,111,74
Federal Standard 34090,35,130,89
Federal Standard 34092 Dark Green,83,100,90
Federal Standard 34094 Green,62,75,57
Federal Standard 34095 Field Green,89,95,67
Federal Standard 34096 Dark Green,97,99,82
Federal Standard 34097 Field Green,99,106,81
Federal Standard 34098 Green,111,108,76
Federal Standard 34102 Light Green,99,103,80
Federal Standard 34108 Medium Green,71,110,86
Federal Standard 34115,0,93,57
Federal Standard 34127 Green,111,109,75
Federal Standard 34128 Deep Green,101,115,94
Federal Standard 34130,105,103,72
Federal Standard 34138 Green,94,132,80
Federal Standard 34148,101,122,119
Federal Standard 34151 Interior Green,113,112,72
Federal Standard 34158,108,121,119
Federal Standard 34159 Green,115,122,108
Federal Standard 34172,85,111,86
Federal Standard 34201 Tan Green,140,132,106
Federal Standard 34226,132,142,125
Federal Standard 34227 Medium Gray Green,127,145,112
Federal Standard 34230 Green,89,157,90
Federal Standard 34233,130,151,149
Federal Standard 34241,129,166,152
Federal Standard 34258 Green,144,148,104
Federal Standard 34259 Yellow Green,142,131,66
Federal Standard 34272,119,157,128
Federal Standard 34277,136,157,149
Federal Standard 34300,139,163,149
Federal Standard 34325,128,169,152
Federal Standard 34373,160,180,165
Federal Standard 34410,162,180,165
Federal Standard 34414 Green,184,196,173
Federal Standard 34424 Light Gray Green,179,182,159
Federal Standard 34432,177,183,164
Federal Standard 34441,175,187,159
Federal Standard 34449,167,189,155
Federal Standard 34491,177,196,174
Federal Standard 34504,182,196,171
Federal Standard 34516,182,198,180
Federal Standard 34518,178,194,179
Federal Standard 34524,187,198,156
Federal Standard 34533,181,196,158
Federal Standard 34540,161,210,139
Federal Standard 34552 Light Green,212,207,144
Federal Standard 34554 Sky,210,213,185
Federal Standard 34558,192,208,176
Federal Standard 34583,194,195,164
Federal Standard 34666 Green,219,231,171
Federal Standard 34670,208,218,201
Federal Standard 34672,213,219,191
Federal Standard 35042 Sea Blue,69,74,78
Federal Standard 35044 Insignia Blue,68,72,84
Federal Standard 35045 Dark Blue,65,80,93
Federal Standard 35050,24,50,77
Federal Standard 35052 Blue,0,40,92
Federal Standard 35053,38,59,86
Federal Standard 35056,51,70,133
Federal Standard 35109 Dark Blue,69,114,133
Federal Standard 35115,3,92,60
Federal Standard 35164 Intermediate Blue,111,124,138
Federal Standard 35177 Medium Blue,101,130,154
Federal Standard 35180,19,122,187
Federal Standard 35182,42,109,162
Federal Standard 35183,34,128,178
Federal Standard 35189 Blue Gray,111,138,145
Federal Standard 35190 Dark Blue,99,144,169
Federal Standard 35193,89,143,152
Federal Standard 35231 Azure Blue,125,145,185
Federal Standard 35237 Gray Blue,135,146,151
Federal Standard 35240 Blue,127,156,191
Federal Standard 35250 Blue,91,166,214
Federal Standard 35275,53,164,158
Federal Standard 35299,119,165,158
Federal Standard 35352 Blue,148,168,164
Federal Standard 35414 Blue,157,179,174
Federal Standard 35450 Air Superiority Blue,146,182,209
Federal Standard 35466,134,203,228
Federal Standard 35488,161,187,209
Federal Standard 35526 Light Sky Blue,182,196,204
Federal Standard 35550,206,219,226
Federal Standard 35622 Light Blue,205,216,205
Federal Standard 35630,219,219,213
Federal Standard 36076 Gray,87,91,98
Federal Standard 36081 Dark Gunship Gray,91,94,95
Federal Standard 36099 Dark Gray,95,101,106
Federal Standard 36118 Medium Gunship Gray,103,108,115
Federal Standard 36134,86,86,84
Federal Standard 36152 Gray,116,121,123
Federal Standard 36173 Neutral Gray,127,132,138
Federal Standard 36176 Dark Gull Gray,119,128,137
Federal Standard 36187,105,115,116
Federal Standard 36231 Dark Gull Gray,136,139,141
Federal Standard 36251 Gray,142,144,143
Federal Standard 36270 Medium Gray,143,147,150
Federal Standard 36280 Dark Gray,143,147,150
Federal Standard 36293,152,154,155
Federal Standard 36300 Aircraft Exterior Gray,157,162,168
Federal Standard 36306,169,158,147
Federal Standard 36307 Gray,159,160,151
Federal Standard 36314 Flint Gray,155,159,155
Federal Standard 36320 Dark Compass Ghost Gray,152,161,169
Federal Standard 36329 Light Gray,132,152,153
Federal Standard 36357,172,169,156
Federal Standard 36373 Light Gray,174,177,178
Federal Standard 36375 Light Compass Ghost Gray,166,173,180
Federal Standard 36400,195,193,155
Federal Standard 36405,198,190,168
Federal Standard 36415,198,182,156
Federal Standard 36424 Medium Gray,196,186,175
Federal Standard 36440 Light Gull Gray,182,181,176
Federal Standard 36463 Gray,177,179,178
Federal Standard 36473 Sky Gray,173,181,179
Federal Standard 36492 Gray,194,192,191
Federal Standard 36495 Light Gray,207,209,210
Federal Standard 36521 Tan,210,197,180
Federal Standard 36555 Tan,212,198,168
Federal Standard 36559 Gray,201,196,179
Federal Standard 36586,211,204,183
Federal Standard 36595,205,202,190
Federal Standard 36622 Gray,212,208,199
Federal Standard 36628 Flat Aluminum,216,216,212
Federal Standard 36642,233,215,195
Federal Standard 37030,69,68,69
Federal Standard 37031 Black Gray,67,66,68
Federal Standard 37038 Black,66,66,67
Federal Standard 37043,128,117,55
Federal Standard 37056,86,78,74
Federal Standard 37100 Purple,121,83,127
Federal Standard 37142,159,93,135
Federal Standard 37144,139,108,143
Federal Standard 37150,222,211,196
Federal Standard 37178,135,146,150
Federal Standard 37200,160,159,159
Federal Standard 37722,235,227,212
Federal Standard 37769,226,214,192
Federal Standard 37778,241,231,207
Federal Standard 37855 White,246,235,200
Federal Standard 37875 Insignia White,242,241,234
Federal Standard 37886,248,241,225
Federal Standard 37925 Insignia White,251,248,246
Federal Standard 38903,255,85,0
Federal Standard 38913,255,45,0
