Colour Name,R,G,B
RAL 1000,214,199,148
RAL 1001,217,186,140
RAL 1002,198,166,100
RAL 1003,229,190,1
RAL 1004,205,164,52
RAL 1005,169,131,7
RAL 1006,228,160,16
RAL 1007,220,156,0
RAL 1011,138,102,66
RAL 1012,199,180,70
RAL 1013,234,230,202
RAL 1014,225,204,79
RAL 1015,230,214,144
RAL 1016,237,255,33
RAL 1017,245,208,51
RAL 1018,248,243,53
RAL 1019,158,151,100
RAL 1020,153,153,80
RAL 1021,243,218,11
RAL 1023,250,210,1
RAL 1024,174,160,75
RAL 1026,255,255,0
RAL 1027,157,145,1
RAL 1028,244,169,0
RAL 1032,214,174,1
RAL 1033,243,165,5
RAL 1034,239,169,74
RAL 1035,106,93,77
RAL 1036,112,83,53
RAL 1037,243,159,24
RAL 2000,237,118,14
RAL 2001,201,60,32
RAL 2002,203,40,33
RAL 2003,255,117,20
RAL 2004,244,70,17
RAL 2005,255,35,1
RAL 2007,255,164,32
RAL 2008,247,94,37
RAL 2009,245,64,33
RAL 2010,216,75,32
RAL 2011,236,124,38
RAL 2012,235,106,14
RAL 2013,195,88,49
RAL 3000,175,43,30
RAL 3001,165,32,25
RAL 3002,162,35,29
RAL 3003,155,17,30
RAL 3004,117,21,30
RAL 3005,94,33,41
RAL 3007,65,34,39
RAL 3009,100,36,36
RAL 3011,120,31,25
RAL 3012,193,135,107
RAL 3013,161,35,18
RAL 3014,211,110,112
RAL 3015,234,137,154
RAL 3016,179,40,33
RAL 3017,230,50,68
RAL 3018,213,48,50
RAL 3020,204,6,5
RAL 3022,217,80,48
RAL 3024,248,0,0
RAL 3026,254,0,0
RAL 3027,197,29,52
RAL 3028,203,50,52
RAL 3031,179,36,40
RAL 3032,114,20,34
RAL 3033,180,76,67
RAL 4001,109,63,91
RAL 4002,146,43,62
RAL 4003,222,76,138
RAL 4004,110,28,52
RAL 4005,108,70,117
RAL 4006,160,52,114
RAL 4007,74,25,44
RAL 4008,146,78,125
RAL 4009,164,125,144
RAL 4010,215,45,109
RAL 4011,134,115,161
RAL 4012,108,104,129
RAL 5000,42,46,75
RAL 5001,31,52,56
RAL 5002,32,33,79
RAL 5003,29,30,51
RAL 5004,32,33,79
RAL 5005,30,45,110
RAL 5007,62,95,138
RAL 5008,38,37,45
RAL 5009,2,86,105
RAL 5010,14,41,75
RAL 5011,35,26,36
RAL 5012,59,131,189
RAL 5013,37,41,74
RAL 5014,96,111,140
RAL 5015,34,113,179
RAL 5017,6,57,113
RAL 5018,63,136,143
RAL 5019,27,85,131
RAL 5020,29,51,74
RAL 5021,37,109,123
RAL 5022,37,40,80
RAL 5023,73,103,141
RAL 5024,93,155,155
RAL 5025,42,100,120
RAL 5026,16,44,84
RAL 6000,49,102,80
RAL 6001,40,114,51
RAL 6002,45,87,44
RAL 6003,66,70,50
RAL 6004,31,58,61
RAL 6005,47,69,56
RAL 6006,62,59,50
RAL 6007,52,59,41
RAL 6008,57,53,42
RAL 6009,49,55,43
RAL 6010,53,104,45
RAL 6011,88,114,70
RAL 6012,52,62,64
RAL 6013,108,113,86
RAL 6014,71,64,46
RAL 6015,59,60,54
RAL 6016,30,89,69
RAL 6017,76,145,65
RAL 6018,87,166,57
RAL 6019,189,236,182
RAL 6020,46,58,35
RAL 6021,137,172,118
RAL 6022,37,34,27
RAL 6024,48,132,70
RAL 6025,61,100,45
RAL 6026,1,93,82
RAL 6027,132,195,190
RAL 6028,44,85,69
RAL 6029,32,96,61
RAL 6032,49,127,67
RAL 6033,73,126,118
RAL 6034,127,181,181
RAL 6035,28,84,45
RAL 6036,22,53,55
RAL 6037,0,143,57
RAL 6038,0,187,45
RAL 7000,120,133,139
RAL 7001,138,149,151
RAL 7002,126,123,82
RAL 7003,108,112,89
RAL 7004,150,153,146
RAL 7005,100,107,99
RAL 7006,109,101,82
RAL 7008,106,95,49
RAL 7009,77,86,69
RAL 7010,76,81,74
RAL 7011,67,75,77
RAL 7012,78,87,84
RAL 7013,70,69,49
RAL 7015,67,71,80
RAL 7016,41,49,51
RAL 7021,35,40,43
RAL 7022,51,47,44
RAL 7023,104,108,94
RAL 7024,71,74,81
RAL 7026,47,53,59
RAL 7030,139,140,122
RAL 7031,71,75,78
RAL 7032,184,183,153
RAL 7033,125,132,113
RAL 7034,143,139,102
RAL 7035,215,215,215
RAL 7036,127,118,121
RAL 7037,125,127,120
RAL 7038,195,195,195
RAL 7039,108,105,96
RAL 7040,157,161,170
RAL 7042,141,148,141
RAL 7043,78,84,82
RAL 7044,202,196,176
RAL 7045,144,144,144
RAL 7046,130,137,143
RAL 7047,208,208,208
RAL 7048,137,129,118
RAL 8000,130,108,52
RAL 8001,149,95,32
RAL 8002,108,59,42
RAL 8003,115,66,34
RAL 8004,142,64,42
RAL 8007,89,53,31
RAL 8008,111,79,40
RAL 8011,91,58,41
RAL 8012,89,35,33
RAL 8014,56,44,30
RAL 8015,99,58,52
RAL 8016,76,47,39
RAL 8017,69,50,46
RAL 8019,64,58,58
RAL 8022,33,33,33
RAL 8023,166,94,46
RAL 8024,121,85,61
RAL 8025,117,92,72
RAL 8028,78,59,49
RAL 8029,118,60,40
RAL 9001,250,244,227
RAL 9002,231,235,218
RAL 9003,244,244,244
RAL 9004,40,40,40
RAL 9005,10,10,10
RAL 9006,165,165,165
RAL 9007,143,143,143
RAL 9010,255,255,255
RAL 9011,28,28,28
RAL 9016,246,246,246
RAL 9017,30,30,30
RAL 9018,215,215,215
RAL 9022,156,156,156
RAL 9023,130,130,130
